…
``` r
gdp_phone <- full_join(gdp_GM, tidy_newWP, by=c("year", "continent"))

gdp_phone
```

    ## # A tibble: 1,734 x 4
    ## # Groups:   year, continent [?]
    ##     year continent gdpPercap n_phones
    ##    <int> <fct>         <dbl>    <dbl>
    ##  1  1952 Asia           779.      NA 
    ##  2  1957 Asia           821.    5230.
    ##  3  1962 Asia           853.      NA 
    ##  4  1967 Asia           836.      NA 
    ##  5  1972 Asia           740.      NA 
    ##  6  1977 Asia           786.      NA 
    ##  7  1982 Asia           978.      NA 
    ##  8  1987 Asia           852.      NA 
    ##  9  1992 Asia           649.      NA 
    ## 10  1997 Asia           635.      NA 
    ## # ... with 1,724 more rows
…
